{
    "keys": [
        {
            "alg": "RS256",
            "kid": "A",
            "kty": "RSA",
            "n": "znUWynDpsX5OpVOi3Y9HnVNUj8A4Njj8bKxH3C\/NGx6Uqe+VcPUaPa4Dl+ZTSYnVqGNUDEdzURkeD4qdR7m2ks5lIG1xPkWauIyDOnJIFP0AOXcTngv8ODu8Eu4\/YuEZ+8GcumoPPpQ04qHJS+BpxvaG5wJ0mnhCfEViZXQxY3X2cNO\/2fHQiT2xzdCGnMu6SVKvp4HWzPQOUYUMqVbY\/CuZMileedDoDVXnnq+vPgXDJP1wIqV\/80r9tKO6J02JqQILLejsPNJU3lYNsY6gXvSIxEob2hH86omqVX\/k5k03sZn\/mg0Y3mQhKcfTIY5OVcJDERpvLy2e3sPKZB2V1Q==",
            "e": "AQAB"
        }
    ]
}
